%YAML 1.1
%TAG !u! tag:unity3d.com,2011:
--- !u!114 &11400000
MonoBehaviour:
  m_ObjectHideFlags: 0
  m_CorrespondingSourceObject: {fileID: 0}
  m_PrefabInstance: {fileID: 0}
  m_PrefabAsset: {fileID: 0}
  m_GameObject: {fileID: 0}
  m_Enabled: 1
  m_EditorHideFlags: 0
  m_Script: {fileID: 11500000, guid: 1b1338ea42744ba49a7e13430f9d631f, type: 3}
  m_Name: NewTest
  m_EditorClassIdentifier: 
  sprite: {fileID: 21300000, guid: 0e123cfdc54a3ca4684816a34167a566, type: 3}
  grid: 000000000700000006000000
