%YAML 1.1
%TAG !u! tag:unity3d.com,2011:
--- !u!114 &11400000
MonoBehaviour:
  m_ObjectHideFlags: 0
  m_CorrespondingSourceObject: {fileID: 0}
  m_PrefabInstance: {fileID: 0}
  m_PrefabAsset: {fileID: 0}
  m_GameObject: {fileID: 0}
  m_Enabled: 1
  m_EditorHideFlags: 0
  m_Script: {fileID: 11500000, guid: fe03868b81c8c3343a95291eb2fd3b30, type: 3}
  m_Name: Default
  m_EditorClassIdentifier: 
  rewards:
  - {fileID: 11400000, guid: 62361c4313e19fb418a022b7c0bdfa9b, type: 2}
  - {fileID: 11400000, guid: 1af2fb245e9743a48b854050be5a1a4d, type: 2}
  text: Dude, well done.
