%YAML 1.1
%TAG !u! tag:unity3d.com,2011:
--- !u!114 &11400000
MonoBehaviour:
  m_ObjectHideFlags: 0
  m_CorrespondingSourceObject: {fileID: 0}
  m_PrefabInstance: {fileID: 0}
  m_PrefabAsset: {fileID: 0}
  m_GameObject: {fileID: 0}
  m_Enabled: 1
  m_EditorHideFlags: 0
  m_Script: {fileID: 11500000, guid: 3243d453a00e11f4c8fa47f9c0d8380a, type: 3}
  m_Name: Sword
  m_EditorClassIdentifier: 
  sprite: {fileID: 21300000, guid: 5fd50594014b70e48bd6993443d46b32, type: 3}
  itemName: Sword
  itemDesc: A sword. It is unremarkable.
  baseDurability: 20
  value: 10
  itemType: 0
  effectType: 0
  armorType: 0
  stackable: 0
